0,0 @ t = 0
1,0 @ t = 1
1,0 @ t = 2
1,0 @ t = 3
1,0 @ t = 4
1,0 @ t = 5
1,0 @ t = 6
1,0 @ t = 7
1,0 @ t = 8
1,0 @ t = 9
1,0 @ t = 10
1,0 @ t = 11
1,0 @ t = 12
1,0 @ t = 13
1,0 @ t = 14
1,0 @ t = 15
1,0 @ t = 16
1,0 @ t = 17
1,0 @ t = 18
1,0 @ t = 19
1,0 @ t = 20
1,0 @ t = 21
1,0 @ t = 22
1,0 @ t = 23
1,0 @ t = 24
1,0 @ t = 25
1,0 @ t = 26
1,0 @ t = 27
1,0 @ t = 28
1,0 @ t = 29
1,0 @ t = 30
1,0 @ t = 31
1,0 @ t = 32
1,0 @ t = 33
1,0 @ t = 34
1,0 @ t = 35
1,0 @ t = 36
1,0 @ t = 37
1,0 @ t = 38
1,0 @ t = 39
1,0 @ t = 40
1,0 @ t = 41
1,0 @ t = 42
1,0 @ t = 43
1,0 @ t = 44
1,0 @ t = 45
1,0 @ t = 46
1,0 @ t = 47
1,0 @ t = 48
1,0 @ t = 49
1,0 @ t = 50
1,0 @ t = 51
1,0 @ t = 52
1,0 @ t = 53
1,0 @ t = 54
1,0 @ t = 55
1,0 @ t = 56
1,0 @ t = 57
1,0 @ t = 58
1,0 @ t = 59
1,0 @ t = 60
1,0 @ t = 61
1,0 @ t = 62
1,0 @ t = 63
1,0 @ t = 64
1,0 @ t = 65
1,0 @ t = 66
1,0 @ t = 67
1,0 @ t = 68
1,0 @ t = 69
1,0 @ t = 70
1,0 @ t = 71
1,0 @ t = 72
1,0 @ t = 73
1,0 @ t = 74
1,0 @ t = 75
1,0 @ t = 76
1,0 @ t = 77
1,0 @ t = 78
1,0 @ t = 79
1,1 @ t = 80
1,2 @ t = 81
1,3 @ t = 82
2,3 @ t = 83
3,3 @ t = 84
4,3 @ t = 85
5,3 @ t = 86
6,3 @ t = 87
7,3 @ t = 88
8,3 @ t = 89
8,4 @ t = 90
9,4 @ t = 91
9,5 @ t = 92
9,6 @ t = 93
9,7 @ t = 94
10,7 @ t = 95
11,7 @ t = 96
11,8 @ t = 97
11,9 @ t = 98
11,10 @ t = 99
12,10 @ t = 100
12,11 @ t = 101
13,11 @ t = 102
13,12 @ t = 103
13,13 @ t = 104
13,14 @ t = 105
14,14 @ t = 106
14,15 @ t = 107
15,15 @ t = 108
15,16 @ t = 109
16,16 @ t = 110
16,17 @ t = 111
16,18 @ t = 112
16,19 @ t = 113
16,20 @ t = 114
17,20 @ t = 115
18,20 @ t = 116
19,20 @ t = 117
19,21 @ t = 118
19,22 @ t = 119
19,23 @ t = 120
20,23 @ t = 121
21,23 @ t = 122
22,23 @ t = 123
22,24 @ t = 124
22,25 @ t = 125
22,26 @ t = 126
22,27 @ t = 127
22,28 @ t = 128
22,29 @ t = 129
22,30 @ t = 130
22,31 @ t = 131
23,31 @ t = 132
24,31 @ t = 133
25,31 @ t = 134
26,31 @ t = 135
27,31 @ t = 136
27,32 @ t = 137
28,32 @ t = 138
29,32 @ t = 139
29,33 @ t = 140
29,34 @ t = 141
30,34 @ t = 142
31,34 @ t = 143
32,34 @ t = 144
32,35 @ t = 145
32,36 @ t = 146
32,37 @ t = 147
32,38 @ t = 148
32,39 @ t = 149
32,40 @ t = 150
33,40 @ t = 151
33,41 @ t = 152
33,42 @ t = 153
33,43 @ t = 154
33,44 @ t = 155
33,45 @ t = 156
33,46 @ t = 157
34,46 @ t = 158
34,47 @ t = 159
34,48 @ t = 160
34,49 @ t = 161
34,50 @ t = 162
35,50 @ t = 163
35,51 @ t = 164
35,52 @ t = 165
36,52 @ t = 166
37,52 @ t = 167
38,52 @ t = 168
38,53 @ t = 169
39,53 @ t = 170
40,53 @ t = 171
41,53 @ t = 172
42,53 @ t = 173
43,53 @ t = 174
44,53 @ t = 175
44,52 @ t = 176
44,51 @ t = 177
44,50 @ t = 178
45,50 @ t = 179
46,50 @ t = 180
47,50 @ t = 181
48,50 @ t = 182
48,51 @ t = 183
48,52 @ t = 184
49,52 @ t = 185
49,53 @ t = 186
50,53 @ t = 187
51,53 @ t = 188
51,54 @ t = 189
52,54 @ t = 190
53,54 @ t = 191
54,54 @ t = 192
55,54 @ t = 193
55,53 @ t = 194
56,53 @ t = 195
57,53 @ t = 196
57,54 @ t = 197
58,54 @ t = 198
58,55 @ t = 199
58,56 @ t = 200
59,56 @ t = 201
59,57 @ t = 202
59,58 @ t = 203
60,58 @ t = 204
61,58 @ t = 205
61,59 @ t = 206
62,59 @ t = 207
63,59 @ t = 208
64,59 @ t = 209
65,59 @ t = 210
66,59 @ t = 211
67,59 @ t = 212
67,60 @ t = 213
68,60 @ t = 214
69,60 @ t = 215
69,61 @ t = 216
70,61 @ t = 217
71,61 @ t = 218
72,61 @ t = 219
73,61 @ t = 220
73,62 @ t = 221
74,62 @ t = 222
75,62 @ t = 223
75,63 @ t = 224
75,64 @ t = 225
76,64 @ t = 226
76,65 @ t = 227
77,65 @ t = 228
78,65 @ t = 229
78,66 @ t = 230
79,66 @ t = 231
80,66 @ t = 232
80,67 @ t = 233
80,68 @ t = 234
80,69 @ t = 235
80,70 @ t = 236
80,71 @ t = 237
80,72 @ t = 238
80,73 @ t = 239
81,73 @ t = 240
81,74 @ t = 241
81,75 @ t = 242
81,76 @ t = 243
81,77 @ t = 244
82,77 @ t = 245
83,77 @ t = 246
84,77 @ t = 247
84,78 @ t = 248
85,78 @ t = 249
86,78 @ t = 250
86,79 @ t = 251
87,79 @ t = 252
88,79 @ t = 253
89,79 @ t = 254
90,79 @ t = 255
91,79 @ t = 256
92,79 @ t = 257
92,80 @ t = 258
93,80 @ t = 259
94,80 @ t = 260
95,80 @ t = 261
95,81 @ t = 262
95,82 @ t = 263
96,82 @ t = 264
96,83 @ t = 265
96,84 @ t = 266
96,85 @ t = 267
97,85 @ t = 268
97,86 @ t = 269
97,87 @ t = 270
97,88 @ t = 271
98,88 @ t = 272
99,88 @ t = 273
99,89 @ t = 274
100,89 @ t = 275
100,90 @ t = 276
101,90 @ t = 277
101,91 @ t = 278
102,91 @ t = 279
102,92 @ t = 280
103,92 @ t = 281
104,92 @ t = 282
104,93 @ t = 283
105,93 @ t = 284
106,93 @ t = 285
106,94 @ t = 286
106,95 @ t = 287
107,95 @ t = 288
108,95 @ t = 289
109,95 @ t = 290
109,96 @ t = 291
109,97 @ t = 292
109,98 @ t = 293
109,99 @ t = 294
110,99 @ t = 295
110,100 @ t = 296
110,101 @ t = 297
110,102 @ t = 298
110,103 @ t = 299
110,104 @ t = 300
110,105 @ t = 301
111,105 @ t = 302
111,106 @ t = 303
111,107 @ t = 304
111,108 @ t = 305
112,108 @ t = 306
113,108 @ t = 307
113,109 @ t = 308
113,110 @ t = 309
113,111 @ t = 310
114,111 @ t = 311
115,111 @ t = 312
115,112 @ t = 313
115,113 @ t = 314
116,113 @ t = 315
117,113 @ t = 316
117,114 @ t = 317
118,114 @ t = 318
118,115 @ t = 319
118,116 @ t = 320
118,117 @ t = 321
119,117 @ t = 322
119,118 @ t = 323
120,118 @ t = 324
121,118 @ t = 325
122,118 @ t = 326
122,119 @ t = 327
122,120 @ t = 328
123,120 @ t = 329
124,120 @ t = 330
124,121 @ t = 331
124,122 @ t = 332
124,123 @ t = 333
125,123 @ t = 334
125,124 @ t = 335
125,125 @ t = 336
126,125 @ t = 337
127,125 @ t = 338
128,125 @ t = 339
128,126 @ t = 340
128,127 @ t = 341
128,128 @ t = 342
128,129 @ t = 343
129,129 @ t = 344
129,130 @ t = 345
129,131 @ t = 346
129,132 @ t = 347
129,133 @ t = 348
130,133 @ t = 349
131,133 @ t = 350
132,133 @ t = 351
133,133 @ t = 352
134,133 @ t = 353
135,133 @ t = 354
136,133 @ t = 355
137,133 @ t = 356
137,134 @ t = 357
137,135 @ t = 358
138,135 @ t = 359
138,136 @ t = 360
138,137 @ t = 361
138,138 @ t = 362
138,139 @ t = 363
138,140 @ t = 364
139,140 @ t = 365
140,140 @ t = 366
141,140 @ t = 367
141,141 @ t = 368
141,142 @ t = 369
141,143 @ t = 370
142,143 @ t = 371
142,144 @ t = 372
142,145 @ t = 373
143,145 @ t = 374
144,145 @ t = 375
145,145 @ t = 376
145,146 @ t = 377
145,147 @ t = 378
146,147 @ t = 379
146,148 @ t = 380
147,148 @ t = 381
148,148 @ t = 382
148,149 @ t = 383
149,149 @ t = 384
150,149 @ t = 385
151,149 @ t = 386
151,150 @ t = 387
152,150 @ t = 388
153,150 @ t = 389
154,150 @ t = 390
154,151 @ t = 391
155,151 @ t = 392
155,152 @ t = 393
155,153 @ t = 394
156,153 @ t = 395
157,153 @ t = 396
158,153 @ t = 397
158,154 @ t = 398
158,155 @ t = 399
158,156 @ t = 400
158,157 @ t = 401
159,157 @ t = 402
160,157 @ t = 403
161,157 @ t = 404
162,157 @ t = 405
163,157 @ t = 406
163,158 @ t = 407
163,159 @ t = 408
163,160 @ t = 409
163,161 @ t = 410
164,161 @ t = 411
165,161 @ t = 412
165,162 @ t = 413
166,162 @ t = 414
167,162 @ t = 415
168,162 @ t = 416
169,162 @ t = 417
169,163 @ t = 418
170,163 @ t = 419
170,164 @ t = 420
170,165 @ t = 421
170,166 @ t = 422
171,166 @ t = 423
171,167 @ t = 424
171,168 @ t = 425
172,168 @ t = 426
173,168 @ t = 427
173,169 @ t = 428
174,169 @ t = 429
174,170 @ t = 430
174,171 @ t = 431
174,172 @ t = 432
175,172 @ t = 433
175,173 @ t = 434
175,174 @ t = 435
176,174 @ t = 436
177,174 @ t = 437
178,174 @ t = 438
179,174 @ t = 439
180,174 @ t = 440
181,174 @ t = 441
182,174 @ t = 442
183,174 @ t = 443
184,174 @ t = 444
184,175 @ t = 445
184,176 @ t = 446
184,177 @ t = 447
185,177 @ t = 448
185,178 @ t = 449
186,178 @ t = 450
186,179 @ t = 451
186,180 @ t = 452
186,181 @ t = 453
186,182 @ t = 454
186,183 @ t = 455
186,184 @ t = 456
187,184 @ t = 457
188,184 @ t = 458
189,184 @ t = 459
190,184 @ t = 460
191,184 @ t = 461
192,184 @ t = 462
192,185 @ t = 463
193,185 @ t = 464
193,186 @ t = 465
194,186 @ t = 466
195,186 @ t = 467
196,186 @ t = 468
197,186 @ t = 469
198,186 @ t = 470
199,186 @ t = 471
200,186 @ t = 472
201,186 @ t = 473
201,185 @ t = 474
202,185 @ t = 475
203,185 @ t = 476
204,185 @ t = 477
205,185 @ t = 478
206,185 @ t = 479
207,185 @ t = 480
208,185 @ t = 481
208,186 @ t = 482
209,186 @ t = 483
210,186 @ t = 484
211,186 @ t = 485
212,186 @ t = 486
212,187 @ t = 487
213,187 @ t = 488
213,188 @ t = 489
213,189 @ t = 490
213,190 @ t = 491
213,191 @ t = 492
213,192 @ t = 493
213,193 @ t = 494
213,194 @ t = 495
213,195 @ t = 496
212,195 @ t = 497
212,196 @ t = 498
212,197 @ t = 499
213,197 @ t = 500
214,197 @ t = 501
214,198 @ t = 502
214,199 @ t = 503
214,200 @ t = 504
214,201 @ t = 505
215,201 @ t = 506
215,202 @ t = 507
216,202 @ t = 508
216,203 @ t = 509
217,203 @ t = 510
217,204 @ t = 511
218,204 @ t = 512
219,204 @ t = 513
220,204 @ t = 514
220,205 @ t = 515
220,206 @ t = 516
220,207 @ t = 517
220,208 @ t = 518
220,209 @ t = 519
221,209 @ t = 520
222,209 @ t = 521
222,210 @ t = 522
222,211 @ t = 523
222,212 @ t = 524
222,213 @ t = 525
222,214 @ t = 526
222,215 @ t = 527
223,215 @ t = 528
223,216 @ t = 529
223,217 @ t = 530
224,217 @ t = 531
225,217 @ t = 532
225,218 @ t = 533
226,218 @ t = 534
226,219 @ t = 535
226,220 @ t = 536
226,221 @ t = 537
227,221 @ t = 538
228,221 @ t = 539
229,221 @ t = 540
230,221 @ t = 541
231,221 @ t = 542
231,222 @ t = 543
231,223 @ t = 544
232,223 @ t = 545
233,223 @ t = 546
234,223 @ t = 547
234,224 @ t = 548
234,225 @ t = 549
234,226 @ t = 550
235,226 @ t = 551
235,227 @ t = 552
235,228 @ t = 553
236,228 @ t = 554
237,228 @ t = 555
237,229 @ t = 556
238,229 @ t = 557
238,230 @ t = 558
239,230 @ t = 559
240,230 @ t = 560
241,230 @ t = 561
242,230 @ t = 562
243,230 @ t = 563
244,230 @ t = 564
244,231 @ t = 565
244,232 @ t = 566
244,233 @ t = 567
245,233 @ t = 568
245,234 @ t = 569
245,235 @ t = 570
246,235 @ t = 571
246,236 @ t = 572
246,237 @ t = 573
247,237 @ t = 574
248,237 @ t = 575
249,237 @ t = 576
249,238 @ t = 577
250,238 @ t = 578
251,238 @ t = 579
252,238 @ t = 580
253,238 @ t = 581
254,238 @ t = 582
254,239 @ t = 583
254,240 @ t = 584
254,241 @ t = 585
254,242 @ t = 586
255,242 @ t = 587
255,243 @ t = 588
256,243 @ t = 589
256,244 @ t = 590
256,245 @ t = 591
257,245 @ t = 592
257,246 @ t = 593
258,246 @ t = 594
258,247 @ t = 595
258,248 @ t = 596
258,249 @ t = 597
258,250 @ t = 598
258,251 @ t = 599
259,251 @ t = 600
259,252 @ t = 601
260,252 @ t = 602
260,253 @ t = 603
261,253 @ t = 604
261,254 @ t = 605
261,255 @ t = 606
262,255 @ t = 607
263,255 @ t = 608
263,256 @ t = 609
263,257 @ t = 610
263,258 @ t = 611
263,259 @ t = 612
263,260 @ t = 613
264,260 @ t = 614
265,260 @ t = 615
265,261 @ t = 616
265,262 @ t = 617
266,262 @ t = 618
267,262 @ t = 619
267,263 @ t = 620
268,263 @ t = 621
268,264 @ t = 622
269,264 @ t = 623
270,264 @ t = 624
270,265 @ t = 625
270,266 @ t = 626
271,266 @ t = 627
272,266 @ t = 628
272,267 @ t = 629
273,267 @ t = 630
274,267 @ t = 631
275,267 @ t = 632
275,268 @ t = 633
275,269 @ t = 634
276,269 @ t = 635
277,269 @ t = 636
278,269 @ t = 637
279,269 @ t = 638
279,270 @ t = 639
279,271 @ t = 640
279,272 @ t = 641
280,272 @ t = 642
281,272 @ t = 643
282,272 @ t = 644
283,272 @ t = 645
283,273 @ t = 646
283,274 @ t = 647
283,275 @ t = 648
284,275 @ t = 649
285,275 @ t = 650
285,276 @ t = 651
285,277 @ t = 652
285,278 @ t = 653
285,279 @ t = 654
285,280 @ t = 655
285,281 @ t = 656
286,281 @ t = 657
287,281 @ t = 658
287,282 @ t = 659
287,283 @ t = 660
288,283 @ t = 661
288,284 @ t = 662
288,285 @ t = 663
289,285 @ t = 664
289,286 @ t = 665
289,287 @ t = 666
290,287 @ t = 667
291,287 @ t = 668
292,287 @ t = 669
292,288 @ t = 670
293,288 @ t = 671
294,288 @ t = 672
295,288 @ t = 673
296,288 @ t = 674
297,288 @ t = 675
298,288 @ t = 676
299,288 @ t = 677
299,289 @ t = 678
300,289 @ t = 679
301,289 @ t = 680
302,289 @ t = 681
302,290 @ t = 682
303,290 @ t = 683
303,291 @ t = 684
304,291 @ t = 685
305,291 @ t = 686
305,292 @ t = 687
305,293 @ t = 688
305,294 @ t = 689
306,294 @ t = 690
307,294 @ t = 691
308,294 @ t = 692
309,294 @ t = 693
310,294 @ t = 694
310,295 @ t = 695
310,296 @ t = 696
310,297 @ t = 697
311,297 @ t = 698
312,297 @ t = 699
312,298 @ t = 700
313,298 @ t = 701
313,299 @ t = 702
314,299 @ t = 703
315,299 @ t = 704
316,299 @ t = 705
317,299 @ t = 706
317,300 @ t = 707
317,301 @ t = 708
318,301 @ t = 709
319,301 @ t = 710
320,301 @ t = 711
321,301 @ t = 712
321,302 @ t = 713
322,302 @ t = 714
323,302 @ t = 715
323,303 @ t = 716
324,303 @ t = 717
324,304 @ t = 718
324,305 @ t = 719
325,305 @ t = 720
325,306 @ t = 721
326,306 @ t = 722
326,307 @ t = 723
326,308 @ t = 724
326,309 @ t = 725
326,310 @ t = 726
326,311 @ t = 727
326,312 @ t = 728
326,313 @ t = 729
326,314 @ t = 730
326,315 @ t = 731
327,315 @ t = 732
327,316 @ t = 733
327,317 @ t = 734
327,318 @ t = 735
327,319 @ t = 736
327,320 @ t = 737
327,321 @ t = 738
327,322 @ t = 739
327,323 @ t = 740
326,323 @ t = 741
326,324 @ t = 742
326,325 @ t = 743
326,326 @ t = 744
327,326 @ t = 745
328,326 @ t = 746
328,327 @ t = 747
328,328 @ t = 748
329,328 @ t = 749
329,329 @ t = 750
329,330 @ t = 751
329,331 @ t = 752
330,331 @ t = 753
331,331 @ t = 754
332,331 @ t = 755
333,331 @ t = 756
334,331 @ t = 757
335,331 @ t = 758
336,331 @ t = 759
337,331 @ t = 760
338,331 @ t = 761
339,331 @ t = 762
339,332 @ t = 763
340,332 @ t = 764
341,332 @ t = 765
341,333 @ t = 766
342,333 @ t = 767
343,333 @ t = 768
343,334 @ t = 769
344,334 @ t = 770
344,335 @ t = 771
344,336 @ t = 772
345,336 @ t = 773
345,337 @ t = 774
345,338 @ t = 775
345,339 @ t = 776
345,340 @ t = 777
345,341 @ t = 778
345,342 @ t = 779
346,342 @ t = 780
347,342 @ t = 781
347,343 @ t = 782
347,344 @ t = 783
347,345 @ t = 784
348,345 @ t = 785
348,346 @ t = 786
349,346 @ t = 787
349,347 @ t = 788
350,347 @ t = 789
350,348 @ t = 790
350,349 @ t = 791
350,350 @ t = 792
350,351 @ t = 793
350,352 @ t = 794
350,353 @ t = 795
350,354 @ t = 796
350,355 @ t = 797
351,355 @ t = 798
352,355 @ t = 799
352,356 @ t = 800
352,357 @ t = 801
352,358 @ t = 802
352,359 @ t = 803
353,359 @ t = 804
354,359 @ t = 805
355,359 @ t = 806
355,360 @ t = 807
355,361 @ t = 808
355,362 @ t = 809
355,363 @ t = 810
356,363 @ t = 811
357,363 @ t = 812
358,363 @ t = 813
359,363 @ t = 814
360,363 @ t = 815
361,363 @ t = 816
362,363 @ t = 817
363,363 @ t = 818
363,364 @ t = 819
364,364 @ t = 820
364,365 @ t = 821
365,365 @ t = 822
365,366 @ t = 823
366,366 @ t = 824
367,366 @ t = 825
368,366 @ t = 826
369,366 @ t = 827
369,367 @ t = 828
369,368 @ t = 829
369,369 @ t = 830
369,370 @ t = 831
369,371 @ t = 832
369,372 @ t = 833
370,372 @ t = 834
371,372 @ t = 835
372,372 @ t = 836
372,373 @ t = 837
373,373 @ t = 838
373,374 @ t = 839
373,375 @ t = 840
373,376 @ t = 841
374,376 @ t = 842
374,377 @ t = 843
374,378 @ t = 844
374,379 @ t = 845
375,379 @ t = 846
376,379 @ t = 847
376,380 @ t = 848
377,380 @ t = 849
377,381 @ t = 850
377,382 @ t = 851
378,382 @ t = 852
379,382 @ t = 853
379,383 @ t = 854
380,383 @ t = 855
380,384 @ t = 856
380,385 @ t = 857
380,386 @ t = 858
380,387 @ t = 859
380,388 @ t = 860
380,389 @ t = 861
380,390 @ t = 862
380,391 @ t = 863
380,392 @ t = 864
380,393 @ t = 865
380,394 @ t = 866
380,395 @ t = 867
380,396 @ t = 868
379,396 @ t = 869
379,397 @ t = 870
379,398 @ t = 871
379,399 @ t = 872
379,400 @ t = 873
379,401 @ t = 874
380,401 @ t = 875
380,402 @ t = 876
380,403 @ t = 877
380,404 @ t = 878
381,404 @ t = 879
381,405 @ t = 880
381,406 @ t = 881
381,407 @ t = 882
381,408 @ t = 883
381,409 @ t = 884
381,410 @ t = 885
381,411 @ t = 886
382,411 @ t = 887
382,412 @ t = 888
382,413 @ t = 889
382,414 @ t = 890
382,415 @ t = 891
382,416 @ t = 892
382,417 @ t = 893
382,418 @ t = 894
382,419 @ t = 895
382,420 @ t = 896
382,421 @ t = 897
383,421 @ t = 898
383,422 @ t = 899
383,423 @ t = 900
384,423 @ t = 901
384,424 @ t = 902
384,425 @ t = 903
384,426 @ t = 904
384,427 @ t = 905
384,428 @ t = 906
385,428 @ t = 907
385,429 @ t = 908
385,430 @ t = 909
385,431 @ t = 910
385,432 @ t = 911
385,433 @ t = 912
386,433 @ t = 913
386,434 @ t = 914
387,434 @ t = 915
388,434 @ t = 916
389,434 @ t = 917
390,434 @ t = 918
390,435 @ t = 919
390,436 @ t = 920
390,437 @ t = 921
390,438 @ t = 922
390,439 @ t = 923
390,440 @ t = 924
391,440 @ t = 925
391,441 @ t = 926
392,441 @ t = 927
392,442 @ t = 928
392,443 @ t = 929
392,444 @ t = 930
393,444 @ t = 931
394,444 @ t = 932
394,445 @ t = 933
395,445 @ t = 934
395,446 @ t = 935
396,446 @ t = 936
397,446 @ t = 937
398,446 @ t = 938
399,446 @ t = 939
399,447 @ t = 940
399,448 @ t = 941
400,448 @ t = 942
400,449 @ t = 943
400,450 @ t = 944
400,451 @ t = 945
400,452 @ t = 946
400,453 @ t = 947
400,454 @ t = 948
401,454 @ t = 949
402,454 @ t = 950
403,454 @ t = 951
403,455 @ t = 952
403,456 @ t = 953
403,457 @ t = 954
403,458 @ t = 955
403,459 @ t = 956
403,460 @ t = 957
403,461 @ t = 958
404,461 @ t = 959
404,462 @ t = 960
405,462 @ t = 961
406,462 @ t = 962
406,463 @ t = 963
406,464 @ t = 964
406,465 @ t = 965
406,466 @ t = 966
406,467 @ t = 967
407,467 @ t = 968
408,467 @ t = 969
408,468 @ t = 970
408,469 @ t = 971
408,470 @ t = 972
409,470 @ t = 973
409,471 @ t = 974
410,471 @ t = 975
410,472 @ t = 976
410,473 @ t = 977
411,473 @ t = 978
411,474 @ t = 979
411,475 @ t = 980
412,475 @ t = 981
413,475 @ t = 982
414,475 @ t = 983
415,475 @ t = 984
415,476 @ t = 985
415,477 @ t = 986
416,477 @ t = 987
417,477 @ t = 988
418,477 @ t = 989
419,477 @ t = 990
419,478 @ t = 991
419,479 @ t = 992
419,480 @ t = 993
419,481 @ t = 994
420,481 @ t = 995
420,482 @ t = 996
420,483 @ t = 997
421,483 @ t = 998
422,483 @ t = 999
422,484 @ t = 1000
423,484 @ t = 1001
424,484 @ t = 1002
424,485 @ t = 1003
424,486 @ t = 1004
425,486 @ t = 1005
425,487 @ t = 1006
426,487 @ t = 1007
426,488 @ t = 1008
426,489 @ t = 1009
426,490 @ t = 1010
427,490 @ t = 1011
427,491 @ t = 1012
428,491 @ t = 1013
429,491 @ t = 1014
429,492 @ t = 1015
430,492 @ t = 1016
430,493 @ t = 1017
431,493 @ t = 1018
431,494 @ t = 1019
431,495 @ t = 1020
431,496 @ t = 1021
431,497 @ t = 1022
431,498 @ t = 1023
431,499 @ t = 1024
431,500 @ t = 1025
431,501 @ t = 1026
431,502 @ t = 1027
430,502 @ t = 1028
430,503 @ t = 1029
430,504 @ t = 1030
429,504 @ t = 1031
429,505 @ t = 1032
429,506 @ t = 1033
429,507 @ t = 1034
429,508 @ t = 1035
430,508 @ t = 1036
430,509 @ t = 1037
431,509 @ t = 1038
431,510 @ t = 1039
431,511 @ t = 1040
432,511 @ t = 1041
432,512 @ t = 1042
433,512 @ t = 1043
433,513 @ t = 1044
433,514 @ t = 1045
434,514 @ t = 1046
435,514 @ t = 1047
435,515 @ t = 1048
435,516 @ t = 1049
435,517 @ t = 1050
435,518 @ t = 1051
436,518 @ t = 1052
437,518 @ t = 1053
437,519 @ t = 1054
437,520 @ t = 1055
437,521 @ t = 1056
438,521 @ t = 1057
438,522 @ t = 1058
439,522 @ t = 1059
439,523 @ t = 1060
439,524 @ t = 1061
439,525 @ t = 1062
440,525 @ t = 1063
441,525 @ t = 1064
442,525 @ t = 1065
442,524 @ t = 1066
443,524 @ t = 1067
444,524 @ t = 1068
444,525 @ t = 1069
445,525 @ t = 1070
445,526 @ t = 1071
446,526 @ t = 1072
446,527 @ t = 1073
446,528 @ t = 1074
447,528 @ t = 1075
448,528 @ t = 1076
449,528 @ t = 1077
450,528 @ t = 1078
451,528 @ t = 1079
452,528 @ t = 1080
453,528 @ t = 1081
453,529 @ t = 1082
453,530 @ t = 1083
453,531 @ t = 1084
453,532 @ t = 1085
454,532 @ t = 1086
454,533 @ t = 1087
454,534 @ t = 1088
454,535 @ t = 1089
454,536 @ t = 1090
454,537 @ t = 1091
454,538 @ t = 1092
454,539 @ t = 1093
454,540 @ t = 1094
455,540 @ t = 1095
455,541 @ t = 1096
455,542 @ t = 1097
455,543 @ t = 1098
455,544 @ t = 1099
455,545 @ t = 1100
455,546 @ t = 1101
455,547 @ t = 1102
455,548 @ t = 1103
455,549 @ t = 1104
455,550 @ t = 1105
455,551 @ t = 1106
456,551 @ t = 1107
457,551 @ t = 1108
457,552 @ t = 1109
458,552 @ t = 1110
458,553 @ t = 1111
458,554 @ t = 1112
458,555 @ t = 1113
458,556 @ t = 1114
459,556 @ t = 1115
460,556 @ t = 1116
460,557 @ t = 1117
460,558 @ t = 1118
461,558 @ t = 1119
461,559 @ t = 1120
461,560 @ t = 1121
461,561 @ t = 1122
461,562 @ t = 1123
461,563 @ t = 1124
461,564 @ t = 1125
461,565 @ t = 1126
460,565 @ t = 1127
460,566 @ t = 1128
460,567 @ t = 1129
461,567 @ t = 1130
461,568 @ t = 1131
461,569 @ t = 1132
461,570 @ t = 1133
462,570 @ t = 1134
463,570 @ t = 1135
463,571 @ t = 1136
463,572 @ t = 1137
463,573 @ t = 1138
464,573 @ t = 1139
465,573 @ t = 1140
466,573 @ t = 1141
466,574 @ t = 1142
467,574 @ t = 1143
468,574 @ t = 1144
469,574 @ t = 1145
470,574 @ t = 1146
471,574 @ t = 1147
471,575 @ t = 1148
471,576 @ t = 1149
471,577 @ t = 1150
471,578 @ t = 1151
471,579 @ t = 1152
472,579 @ t = 1153
472,580 @ t = 1154
472,581 @ t = 1155
473,581 @ t = 1156
473,582 @ t = 1157
473,583 @ t = 1158
473,584 @ t = 1159
473,585 @ t = 1160
473,586 @ t = 1161
473,587 @ t = 1162
473,588 @ t = 1163
473,589 @ t = 1164
473,590 @ t = 1165
473,591 @ t = 1166
473,592 @ t = 1167
474,592 @ t = 1168
474,593 @ t = 1169
474,594 @ t = 1170
475,594 @ t = 1171
475,595 @ t = 1172
475,596 @ t = 1173
475,597 @ t = 1174
475,598 @ t = 1175
475,599 @ t = 1176
475,600 @ t = 1177
475,601 @ t = 1178
476,601 @ t = 1179
477,601 @ t = 1180
478,601 @ t = 1181
478,602 @ t = 1182
478,603 @ t = 1183
479,603 @ t = 1184
480,603 @ t = 1185
480,604 @ t = 1186
480,605 @ t = 1187
480,606 @ t = 1188
481,606 @ t = 1189
481,607 @ t = 1190
481,608 @ t = 1191
482,608 @ t = 1192
482,609 @ t = 1193
483,609 @ t = 1194
483,610 @ t = 1195
483,611 @ t = 1196
483,612 @ t = 1197
484,612 @ t = 1198
484,613 @ t = 1199
484,614 @ t = 1200
484,615 @ t = 1201
484,616 @ t = 1202
483,616 @ t = 1203
482,616 @ t = 1204
482,617 @ t = 1205
481,617 @ t = 1206
480,617 @ t = 1207
480,618 @ t = 1208
480,619 @ t = 1209
480,620 @ t = 1210
480,621 @ t = 1211
479,621 @ t = 1212
478,621 @ t = 1213
478,622 @ t = 1214
478,623 @ t = 1215
479,623 @ t = 1216
479,624 @ t = 1217
479,625 @ t = 1218
479,626 @ t = 1219
479,627 @ t = 1220
479,628 @ t = 1221
479,629 @ t = 1222
480,629 @ t = 1223
481,629 @ t = 1224
481,630 @ t = 1225
481,631 @ t = 1226
481,632 @ t = 1227
481,633 @ t = 1228
481,634 @ t = 1229
481,635 @ t = 1230
481,636 @ t = 1231
481,637 @ t = 1232
481,638 @ t = 1233
482,638 @ t = 1234
482,639 @ t = 1235
482,640 @ t = 1236
482,641 @ t = 1237
481,641 @ t = 1238
481,642 @ t = 1239
481,643 @ t = 1240
481,644 @ t = 1241
481,645 @ t = 1242
481,646 @ t = 1243
481,647 @ t = 1244
481,648 @ t = 1245
481,649 @ t = 1246
481,650 @ t = 1247
482,650 @ t = 1248
482,651 @ t = 1249
483,651 @ t = 1250
483,652 @ t = 1251
483,653 @ t = 1252
483,654 @ t = 1253
483,655 @ t = 1254
484,655 @ t = 1255
484,656 @ t = 1256
484,657 @ t = 1257
484,658 @ t = 1258
484,659 @ t = 1259
484,660 @ t = 1260
485,660 @ t = 1261
486,660 @ t = 1262
486,661 @ t = 1263
486,662 @ t = 1264
487,662 @ t = 1265
487,663 @ t = 1266
488,663 @ t = 1267
488,664 @ t = 1268
488,665 @ t = 1269
489,665 @ t = 1270
490,665 @ t = 1271
491,665 @ t = 1272
492,665 @ t = 1273
493,665 @ t = 1274
494,665 @ t = 1275
494,666 @ t = 1276
495,666 @ t = 1277
496,666 @ t = 1278
497,666 @ t = 1279
498,666 @ t = 1280
499,666 @ t = 1281
499,667 @ t = 1282
500,667 @ t = 1283
500,668 @ t = 1284
501,668 @ t = 1285
501,669 @ t = 1286
501,670 @ t = 1287
502,670 @ t = 1288
503,670 @ t = 1289
503,671 @ t = 1290
503,672 @ t = 1291
503,673 @ t = 1292
504,673 @ t = 1293
504,674 @ t = 1294
504,675 @ t = 1295
504,676 @ t = 1296
504,677 @ t = 1297
504,678 @ t = 1298
504,679 @ t = 1299
505,679 @ t = 1300
505,680 @ t = 1301
506,680 @ t = 1302
506,681 @ t = 1303
507,681 @ t = 1304
507,682 @ t = 1305
507,683 @ t = 1306
507,684 @ t = 1307
507,685 @ t = 1308
507,686 @ t = 1309
508,686 @ t = 1310
509,686 @ t = 1311
509,687 @ t = 1312
509,688 @ t = 1313
510,688 @ t = 1314
510,689 @ t = 1315
510,690 @ t = 1316
511,690 @ t = 1317
512,690 @ t = 1318
512,691 @ t = 1319
512,692 @ t = 1320
512,693 @ t = 1321
512,694 @ t = 1322
513,694 @ t = 1323
514,694 @ t = 1324
515,694 @ t = 1325
516,694 @ t = 1326
516,695 @ t = 1327
516,696 @ t = 1328
517,696 @ t = 1329
517,697 @ t = 1330
517,698 @ t = 1331
517,699 @ t = 1332
517,700 @ t = 1333
517,701 @ t = 1334
517,702 @ t = 1335
518,702 @ t = 1336
519,702 @ t = 1337
519,703 @ t = 1338
519,704 @ t = 1339
520,704 @ t = 1340
521,704 @ t = 1341
522,704 @ t = 1342
522,705 @ t = 1343
523,705 @ t = 1344
523,706 @ t = 1345
523,707 @ t = 1346
523,708 @ t = 1347
523,709 @ t = 1348
524,709 @ t = 1349
525,709 @ t = 1350
526,709 @ t = 1351
526,710 @ t = 1352
526,711 @ t = 1353
527,711 @ t = 1354
527,712 @ t = 1355
528,712 @ t = 1356
529,712 @ t = 1357
530,712 @ t = 1358
531,712 @ t = 1359
532,712 @ t = 1360
533,712 @ t = 1361
533,713 @ t = 1362
533,714 @ t = 1363
533,715 @ t = 1364
533,716 @ t = 1365
533,717 @ t = 1366
533,718 @ t = 1367
533,719 @ t = 1368
533,720 @ t = 1369
533,721 @ t = 1370
533,722 @ t = 1371
533,723 @ t = 1372
532,723 @ t = 1373
532,724 @ t = 1374
532,725 @ t = 1375
532,726 @ t = 1376
532,727 @ t = 1377
532,728 @ t = 1378
533,728 @ t = 1379
533,729 @ t = 1380
533,730 @ t = 1381
533,731 @ t = 1382
534,731 @ t = 1383
534,732 @ t = 1384
535,732 @ t = 1385
536,732 @ t = 1386
537,732 @ t = 1387
537,733 @ t = 1388
537,734 @ t = 1389
537,735 @ t = 1390
537,736 @ t = 1391
537,737 @ t = 1392
537,738 @ t = 1393
537,739 @ t = 1394
537,740 @ t = 1395
537,741 @ t = 1396
537,742 @ t = 1397
538,742 @ t = 1398
538,743 @ t = 1399
538,744 @ t = 1400
538,745 @ t = 1401
538,746 @ t = 1402
538,747 @ t = 1403
539,747 @ t = 1404
540,747 @ t = 1405
540,748 @ t = 1406
540,749 @ t = 1407
540,750 @ t = 1408
540,751 @ t = 1409
540,752 @ t = 1410
540,753 @ t = 1411
540,754 @ t = 1412
540,755 @ t = 1413
540,756 @ t = 1414
540,757 @ t = 1415
541,757 @ t = 1416
541,758 @ t = 1417
542,758 @ t = 1418
543,758 @ t = 1419
543,759 @ t = 1420
543,760 @ t = 1421
544,760 @ t = 1422
544,761 @ t = 1423
544,762 @ t = 1424
545,762 @ t = 1425
546,762 @ t = 1426
546,763 @ t = 1427
547,763 @ t = 1428
547,764 @ t = 1429
547,765 @ t = 1430
547,766 @ t = 1431
547,767 @ t = 1432
547,768 @ t = 1433
547,769 @ t = 1434
547,770 @ t = 1435
547,771 @ t = 1436
547,772 @ t = 1437
547,773 @ t = 1438
548,773 @ t = 1439
548,774 @ t = 1440
548,775 @ t = 1441
548,776 @ t = 1442
548,777 @ t = 1443
548,778 @ t = 1444
547,778 @ t = 1445
546,778 @ t = 1446
546,779 @ t = 1447
546,780 @ t = 1448
546,781 @ t = 1449
546,782 @ t = 1450
546,783 @ t = 1451
546,784 @ t = 1452
545,784 @ t = 1453
545,785 @ t = 1454
545,786 @ t = 1455
545,787 @ t = 1456
546,787 @ t = 1457
546,788 @ t = 1458
546,789 @ t = 1459
547,789 @ t = 1460
547,790 @ t = 1461
547,791 @ t = 1462
547,792 @ t = 1463
547,793 @ t = 1464
548,793 @ t = 1465
548,794 @ t = 1466
548,795 @ t = 1467
549,795 @ t = 1468
550,795 @ t = 1469
550,796 @ t = 1470
550,797 @ t = 1471
550,798 @ t = 1472
550,799 @ t = 1473
550,800 @ t = 1474
550,801 @ t = 1475
551,801 @ t = 1476
552,801 @ t = 1477
552,802 @ t = 1478
552,803 @ t = 1479
552,804 @ t = 1480
552,805 @ t = 1481
552,806 @ t = 1482
552,807 @ t = 1483
552,808 @ t = 1484
552,809 @ t = 1485
553,809 @ t = 1486
554,809 @ t = 1487
554,810 @ t = 1488
554,811 @ t = 1489
554,812 @ t = 1490
554,813 @ t = 1491
554,814 @ t = 1492
555,814 @ t = 1493
556,814 @ t = 1494
556,815 @ t = 1495
556,816 @ t = 1496
556,817 @ t = 1497
556,818 @ t = 1498
556,819 @ t = 1499
556,820 @ t = 1500
556,821 @ t = 1501
556,822 @ t = 1502
556,823 @ t = 1503
556,824 @ t = 1504
556,825 @ t = 1505
557,825 @ t = 1506
557,826 @ t = 1507
557,827 @ t = 1508
558,827 @ t = 1509
558,828 @ t = 1510
559,828 @ t = 1511
559,829 @ t = 1512
560,829 @ t = 1513
560,830 @ t = 1514
560,831 @ t = 1515
561,831 @ t = 1516
562,831 @ t = 1517
563,831 @ t = 1518
564,831 @ t = 1519
565,831 @ t = 1520
565,832 @ t = 1521
565,833 @ t = 1522
565,834 @ t = 1523
565,835 @ t = 1524
565,836 @ t = 1525
565,837 @ t = 1526
566,837 @ t = 1527
566,838 @ t = 1528
567,838 @ t = 1529
568,838 @ t = 1530
568,839 @ t = 1531
568,840 @ t = 1532
568,841 @ t = 1533
568,842 @ t = 1534
568,843 @ t = 1535
568,844 @ t = 1536
568,845 @ t = 1537
568,846 @ t = 1538
569,846 @ t = 1539
569,847 @ t = 1540
569,848 @ t = 1541
570,848 @ t = 1542
570,849 @ t = 1543
570,850 @ t = 1544
570,851 @ t = 1545
570,852 @ t = 1546
570,853 @ t = 1547
570,854 @ t = 1548
570,855 @ t = 1549
569,855 @ t = 1550
569,856 @ t = 1551
569,857 @ t = 1552
570,857 @ t = 1553
570,858 @ t = 1554
570,859 @ t = 1555
570,860 @ t = 1556
571,860 @ t = 1557
571,861 @ t = 1558
572,861 @ t = 1559
573,861 @ t = 1560
574,861 @ t = 1561
575,861 @ t = 1562
575,862 @ t = 1563
575,863 @ t = 1564
576,863 @ t = 1565
576,864 @ t = 1566
576,865 @ t = 1567
576,866 @ t = 1568
576,867 @ t = 1569
576,868 @ t = 1570
576,869 @ t = 1571
577,869 @ t = 1572
578,869 @ t = 1573
579,869 @ t = 1574
579,870 @ t = 1575
579,871 @ t = 1576
579,872 @ t = 1577
579,873 @ t = 1578
579,874 @ t = 1579
579,875 @ t = 1580
579,876 @ t = 1581
579,877 @ t = 1582
580,877 @ t = 1583
581,877 @ t = 1584
581,878 @ t = 1585
582,878 @ t = 1586
582,879 @ t = 1587
583,879 @ t = 1588
583,880 @ t = 1589
583,881 @ t = 1590
584,881 @ t = 1591
585,881 @ t = 1592
586,881 @ t = 1593
587,881 @ t = 1594
588,881 @ t = 1595
588,882 @ t = 1596
588,883 @ t = 1597
588,884 @ t = 1598
588,885 @ t = 1599
587,885 @ t = 1600
587,886 @ t = 1601
587,887 @ t = 1602
587,888 @ t = 1603
588,888 @ t = 1604
588,889 @ t = 1605
588,890 @ t = 1606
588,891 @ t = 1607
589,891 @ t = 1608
590,891 @ t = 1609
590,892 @ t = 1610
590,893 @ t = 1611
590,894 @ t = 1612
590,895 @ t = 1613
590,896 @ t = 1614
591,896 @ t = 1615
592,896 @ t = 1616
593,896 @ t = 1617
593,897 @ t = 1618
594,897 @ t = 1619
594,898 @ t = 1620
594,899 @ t = 1621
594,900 @ t = 1622
594,901 @ t = 1623
594,902 @ t = 1624
594,903 @ t = 1625
594,904 @ t = 1626
595,904 @ t = 1627
596,904 @ t = 1628
596,903 @ t = 1629
597,903 @ t = 1630
598,903 @ t = 1631
599,903 @ t = 1632
600,903 @ t = 1633
600,904 @ t = 1634
600,905 @ t = 1635
601,905 @ t = 1636
601,906 @ t = 1637
601,907 @ t = 1638
601,908 @ t = 1639
601,909 @ t = 1640
602,909 @ t = 1641
603,909 @ t = 1642
603,910 @ t = 1643
603,911 @ t = 1644
603,912 @ t = 1645
603,913 @ t = 1646
603,914 @ t = 1647
604,914 @ t = 1648
604,915 @ t = 1649
604,916 @ t = 1650
604,917 @ t = 1651
605,917 @ t = 1652
605,918 @ t = 1653
605,919 @ t = 1654
606,919 @ t = 1655
607,919 @ t = 1656
608,919 @ t = 1657
609,919 @ t = 1658
609,920 @ t = 1659
610,920 @ t = 1660
610,921 @ t = 1661
610,922 @ t = 1662
611,922 @ t = 1663
612,922 @ t = 1664
612,923 @ t = 1665
613,923 @ t = 1666
613,924 @ t = 1667
613,925 @ t = 1668
613,926 @ t = 1669
614,926 @ t = 1670
615,926 @ t = 1671
616,926 @ t = 1672
617,926 @ t = 1673
618,926 @ t = 1674
619,926 @ t = 1675
619,927 @ t = 1676
620,927 @ t = 1677
621,927 @ t = 1678
622,927 @ t = 1679
623,927 @ t = 1680
624,927 @ t = 1681
625,927 @ t = 1682
626,927 @ t = 1683
627,927 @ t = 1684
627,928 @ t = 1685
627,929 @ t = 1686
627,930 @ t = 1687
627,931 @ t = 1688
628,931 @ t = 1689
628,932 @ t = 1690
628,933 @ t = 1691
629,933 @ t = 1692
629,934 @ t = 1693
630,934 @ t = 1694
630,935 @ t = 1695
630,936 @ t = 1696
631,936 @ t = 1697
632,936 @ t = 1698
632,937 @ t = 1699
632,938 @ t = 1700
632,939 @ t = 1701
633,939 @ t = 1702
634,939 @ t = 1703
634,940 @ t = 1704
634,941 @ t = 1705
634,942 @ t = 1706
634,943 @ t = 1707
634,944 @ t = 1708
634,945 @ t = 1709
634,946 @ t = 1710
634,947 @ t = 1711
634,948 @ t = 1712
634,949 @ t = 1713
635,949 @ t = 1714
635,950 @ t = 1715
635,951 @ t = 1716
636,951 @ t = 1717
637,951 @ t = 1718
637,952 @ t = 1719
638,952 @ t = 1720
639,952 @ t = 1721
640,952 @ t = 1722
640,953 @ t = 1723
640,954 @ t = 1724
641,954 @ t = 1725
642,954 @ t = 1726
643,954 @ t = 1727
644,954 @ t = 1728
645,954 @ t = 1729
646,954 @ t = 1730
647,954 @ t = 1731
648,954 @ t = 1732
649,954 @ t = 1733
650,954 @ t = 1734
651,954 @ t = 1735
652,954 @ t = 1736
653,954 @ t = 1737
654,954 @ t = 1738
655,954 @ t = 1739
656,954 @ t = 1740
657,954 @ t = 1741
658,954 @ t = 1742
659,954 @ t = 1743
659,955 @ t = 1744
660,955 @ t = 1745
661,955 @ t = 1746
662,955 @ t = 1747
663,955 @ t = 1748
664,955 @ t = 1749
665,955 @ t = 1750
665,956 @ t = 1751
666,956 @ t = 1752
666,957 @ t = 1753
667,957 @ t = 1754
667,958 @ t = 1755
668,958 @ t = 1756
668,959 @ t = 1757
669,959 @ t = 1758
670,959 @ t = 1759
671,959 @ t = 1760
672,959 @ t = 1761
673,959 @ t = 1762
674,959 @ t = 1763
674,958 @ t = 1764
675,958 @ t = 1765
675,957 @ t = 1766
676,957 @ t = 1767
677,957 @ t = 1768
677,958 @ t = 1769
678,958 @ t = 1770
679,958 @ t = 1771
680,958 @ t = 1772
681,958 @ t = 1773
682,958 @ t = 1774
683,958 @ t = 1775
684,958 @ t = 1776
685,958 @ t = 1777
686,958 @ t = 1778
687,958 @ t = 1779
687,957 @ t = 1780
688,957 @ t = 1781
688,956 @ t = 1782
688,955 @ t = 1783
688,954 @ t = 1784
689,954 @ t = 1785
690,954 @ t = 1786
691,954 @ t = 1787
692,954 @ t = 1788
693,954 @ t = 1789
694,954 @ t = 1790
695,954 @ t = 1791
696,954 @ t = 1792
697,954 @ t = 1793
698,954 @ t = 1794
699,954 @ t = 1795
700,954 @ t = 1796
701,954 @ t = 1797
701,955 @ t = 1798
702,955 @ t = 1799
703,955 @ t = 1800
703,956 @ t = 1801
703,957 @ t = 1802
704,957 @ t = 1803
705,957 @ t = 1804
706,957 @ t = 1805
707,957 @ t = 1806
708,957 @ t = 1807
709,957 @ t = 1808
710,957 @ t = 1809
711,957 @ t = 1810
712,957 @ t = 1811
713,957 @ t = 1812
714,957 @ t = 1813
715,957 @ t = 1814
716,957 @ t = 1815
717,957 @ t = 1816
718,957 @ t = 1817
719,957 @ t = 1818
720,957 @ t = 1819
720,958 @ t = 1820
720,959 @ t = 1821
721,959 @ t = 1822
722,959 @ t = 1823
723,959 @ t = 1824
724,959 @ t = 1825
725,959 @ t = 1826
726,959 @ t = 1827
727,959 @ t = 1828
727,960 @ t = 1829
728,960 @ t = 1830
729,960 @ t = 1831
730,960 @ t = 1832
731,960 @ t = 1833
732,960 @ t = 1834
733,960 @ t = 1835
733,961 @ t = 1836
733,962 @ t = 1837
733,963 @ t = 1838
734,963 @ t = 1839
735,963 @ t = 1840
736,963 @ t = 1841
737,963 @ t = 1842
738,963 @ t = 1843
739,963 @ t = 1844
740,963 @ t = 1845
741,963 @ t = 1846
742,963 @ t = 1847
743,963 @ t = 1848
744,963 @ t = 1849
745,963 @ t = 1850
745,964 @ t = 1851
746,964 @ t = 1852
747,964 @ t = 1853
747,963 @ t = 1854
748,963 @ t = 1855
749,963 @ t = 1856
750,963 @ t = 1857
751,963 @ t = 1858
751,962 @ t = 1859
752,962 @ t = 1860
753,962 @ t = 1861
754,962 @ t = 1862
755,962 @ t = 1863
756,962 @ t = 1864
757,962 @ t = 1865
758,962 @ t = 1866
759,962 @ t = 1867
760,962 @ t = 1868
761,962 @ t = 1869
761,961 @ t = 1870
762,961 @ t = 1871
763,961 @ t = 1872
764,961 @ t = 1873
765,961 @ t = 1874
766,961 @ t = 1875
767,961 @ t = 1876
768,961 @ t = 1877
769,961 @ t = 1878
770,961 @ t = 1879
771,961 @ t = 1880
771,960 @ t = 1881
772,960 @ t = 1882
772,959 @ t = 1883
773,959 @ t = 1884
774,959 @ t = 1885
774,958 @ t = 1886
775,958 @ t = 1887
776,958 @ t = 1888
777,958 @ t = 1889
778,958 @ t = 1890
779,958 @ t = 1891
779,959 @ t = 1892
780,959 @ t = 1893
781,959 @ t = 1894
781,960 @ t = 1895
782,960 @ t = 1896
783,960 @ t = 1897
784,960 @ t = 1898
785,960 @ t = 1899
786,960 @ t = 1900
787,960 @ t = 1901
788,960 @ t = 1902
789,960 @ t = 1903
790,960 @ t = 1904
791,960 @ t = 1905
792,960 @ t = 1906
793,960 @ t = 1907
793,961 @ t = 1908
794,961 @ t = 1909
795,961 @ t = 1910
795,962 @ t = 1911
796,962 @ t = 1912
797,962 @ t = 1913
798,962 @ t = 1914
799,962 @ t = 1915
799,963 @ t = 1916
800,963 @ t = 1917
801,963 @ t = 1918
802,963 @ t = 1919
803,963 @ t = 1920
804,963 @ t = 1921
804,964 @ t = 1922
805,964 @ t = 1923
806,964 @ t = 1924
807,964 @ t = 1925
808,964 @ t = 1926
809,964 @ t = 1927
809,963 @ t = 1928
810,963 @ t = 1929
811,963 @ t = 1930
812,963 @ t = 1931
813,963 @ t = 1932
814,963 @ t = 1933
815,963 @ t = 1934
815,962 @ t = 1935
816,962 @ t = 1936
816,961 @ t = 1937
817,961 @ t = 1938
818,961 @ t = 1939
819,961 @ t = 1940
820,961 @ t = 1941
821,961 @ t = 1942
822,961 @ t = 1943
822,962 @ t = 1944
823,962 @ t = 1945
824,962 @ t = 1946
825,962 @ t = 1947
826,962 @ t = 1948
827,962 @ t = 1949
828,962 @ t = 1950
829,962 @ t = 1951
830,962 @ t = 1952
831,962 @ t = 1953
832,962 @ t = 1954
832,963 @ t = 1955
833,963 @ t = 1956
834,963 @ t = 1957
834,964 @ t = 1958
835,964 @ t = 1959
836,964 @ t = 1960
837,964 @ t = 1961
838,964 @ t = 1962
839,964 @ t = 1963
840,964 @ t = 1964
840,965 @ t = 1965
841,965 @ t = 1966
842,965 @ t = 1967
843,965 @ t = 1968
844,965 @ t = 1969
845,965 @ t = 1970
846,965 @ t = 1971
847,965 @ t = 1972
848,965 @ t = 1973
848,966 @ t = 1974
849,966 @ t = 1975
849,967 @ t = 1976
850,967 @ t = 1977
850,968 @ t = 1978
851,968 @ t = 1979
852,968 @ t = 1980
853,968 @ t = 1981
853,967 @ t = 1982
854,967 @ t = 1983
854,966 @ t = 1984
854,965 @ t = 1985
855,965 @ t = 1986
856,965 @ t = 1987
857,965 @ t = 1988
857,966 @ t = 1989
857,967 @ t = 1990
857,968 @ t = 1991
858,968 @ t = 1992
859,968 @ t = 1993
860,968 @ t = 1994
861,968 @ t = 1995
862,968 @ t = 1996
863,968 @ t = 1997
864,968 @ t = 1998
865,968 @ t = 1999
865,969 @ t = 2000
866,969 @ t = 2001
866,970 @ t = 2002
867,970 @ t = 2003
868,970 @ t = 2004
869,970 @ t = 2005
870,970 @ t = 2006
871,970 @ t = 2007
872,970 @ t = 2008
872,969 @ t = 2009
873,969 @ t = 2010
874,969 @ t = 2011
875,969 @ t = 2012
876,969 @ t = 2013
877,969 @ t = 2014
878,969 @ t = 2015
879,969 @ t = 2016
880,969 @ t = 2017
881,969 @ t = 2018
882,969 @ t = 2019
883,969 @ t = 2020
884,969 @ t = 2021
885,969 @ t = 2022
886,969 @ t = 2023
887,969 @ t = 2024
888,969 @ t = 2025
889,969 @ t = 2026
890,969 @ t = 2027
891,969 @ t = 2028
892,969 @ t = 2029
893,969 @ t = 2030
893,968 @ t = 2031
894,968 @ t = 2032
895,968 @ t = 2033
896,968 @ t = 2034
897,968 @ t = 2035
897,967 @ t = 2036
898,967 @ t = 2037
898,966 @ t = 2038
899,966 @ t = 2039
900,966 @ t = 2040
901,966 @ t = 2041
902,966 @ t = 2042
903,966 @ t = 2043
904,966 @ t = 2044
905,966 @ t = 2045
905,965 @ t = 2046
906,965 @ t = 2047
907,965 @ t = 2048
908,965 @ t = 2049
908,966 @ t = 2050
909,966 @ t = 2051
909,967 @ t = 2052
909,968 @ t = 2053
909,969 @ t = 2054
910,969 @ t = 2055
911,969 @ t = 2056
911,970 @ t = 2057
912,970 @ t = 2058
913,970 @ t = 2059
913,971 @ t = 2060
914,971 @ t = 2061
915,971 @ t = 2062
915,970 @ t = 2063
915,969 @ t = 2064
916,969 @ t = 2065
916,968 @ t = 2066
917,968 @ t = 2067
918,968 @ t = 2068
919,968 @ t = 2069
919,967 @ t = 2070
920,967 @ t = 2071
920,966 @ t = 2072
921,966 @ t = 2073
922,966 @ t = 2074
922,965 @ t = 2075
923,965 @ t = 2076
924,965 @ t = 2077
925,965 @ t = 2078
926,965 @ t = 2079
927,965 @ t = 2080
928,965 @ t = 2081
929,965 @ t = 2082
930,965 @ t = 2083
931,965 @ t = 2084
932,965 @ t = 2085
933,965 @ t = 2086
934,965 @ t = 2087
935,965 @ t = 2088
936,965 @ t = 2089
936,966 @ t = 2090
937,966 @ t = 2091
938,966 @ t = 2092
939,966 @ t = 2093
939,967 @ t = 2094
940,967 @ t = 2095
940,968 @ t = 2096
941,968 @ t = 2097
942,968 @ t = 2098
943,968 @ t = 2099
944,968 @ t = 2100
945,968 @ t = 2101
946,968 @ t = 2102
946,969 @ t = 2103
947,969 @ t = 2104
948,969 @ t = 2105
948,970 @ t = 2106
949,970 @ t = 2107
950,970 @ t = 2108
950,971 @ t = 2109
951,971 @ t = 2110
951,972 @ t = 2111
952,972 @ t = 2112
953,972 @ t = 2113
954,972 @ t = 2114
955,972 @ t = 2115
956,972 @ t = 2116
957,972 @ t = 2117
958,972 @ t = 2118
959,972 @ t = 2119
960,972 @ t = 2120
961,972 @ t = 2121
961,973 @ t = 2122
961,974 @ t = 2123
962,974 @ t = 2124
963,974 @ t = 2125
963,973 @ t = 2126
964,973 @ t = 2127
965,973 @ t = 2128
966,973 @ t = 2129
967,973 @ t = 2130
967,972 @ t = 2131
967,971 @ t = 2132
967,970 @ t = 2133
968,970 @ t = 2134
969,970 @ t = 2135
969,969 @ t = 2136
970,969 @ t = 2137
971,969 @ t = 2138
972,969 @ t = 2139
973,969 @ t = 2140
974,969 @ t = 2141
974,970 @ t = 2142
975,970 @ t = 2143
976,970 @ t = 2144
977,970 @ t = 2145
978,970 @ t = 2146
979,970 @ t = 2147
979,971 @ t = 2148
979,972 @ t = 2149
980,972 @ t = 2150
981,972 @ t = 2151
982,972 @ t = 2152
983,972 @ t = 2153
984,972 @ t = 2154
984,971 @ t = 2155
985,971 @ t = 2156
985,970 @ t = 2157
986,970 @ t = 2158
987,970 @ t = 2159
988,970 @ t = 2160
988,969 @ t = 2161
989,969 @ t = 2162
990,969 @ t = 2163
990,968 @ t = 2164
990,967 @ t = 2165
991,967 @ t = 2166
992,967 @ t = 2167
